0 PD22 NB22 RSD 1.117e+06 
0 PC22 NA22 RS0 4.083e+03 
0 PD21 NB21 RS1 4.083e+03 
0 PC21 NA21 RS2 4.140e+03 
0 PD20 NB20 RS3 4.112e+03 
0 PC20 NA20 RS4 4.168e+03 
0 PD19 NB19 RS5 4.140e+03 
0 PC19 NA19 RS6 4.083e+03 
0 PD18 NB18 RS7 4.112e+03 
0 PC18 NA18 RS8 4.112e+03 
0 PD17 NB17 RS9 4.112e+03 
0 PC17 NA17 RS10 4.112e+03 
0 PD16 NB16 RS11 4.140e+03 
0 PC16 NA16 RS12 4.083e+03 
0 PD15 NB15 RS13 4.168e+03 
0 PC15 NA15 RS14 4.112e+03 
0 PD14 NB14 RS15 4.140e+03 
0 PC14 NA14 RS16 4.112e+03 
0 PD13 NB13 RS17 4.140e+03 
0 PC13 NA13 RS18 4.083e+03 
0 PD12 NB12 RS19 4.112e+03 
0 PC12 NA12 RS20 4.140e+03 
0 PD11 NB11 RS21 4.083e+03 
0 PC11 NA11 RS22 1.117e+06 
0 PD10 NB10 RS23 1.117e+06 
0 PC10 NA10 RS24 1.117e+06 
0 PD09 NB09 RS25 1.117e+06 
0 PC09 NA09 RS26 1.117e+06 
0 PD08 NB08 RS27 1.117e+06 
0 PC08 NA08 RS28 1.117e+06 
0 PD07 NB07 RS29 1.117e+06 
0 PC07 NA07 RS30 1.117e+06 
0 PD06 NB06 RS31 1.116e+06 
0 PC06 NA06 RS32 1.117e+06 
0 PD05 NB05 RS33 1.117e+06 
0 PC05 NA05 RS34 1.117e+06 
0 PD04 NB04 RS35 1.117e+06 
0 PC04 NA04 RS36 1.117e+06 
0 PD03 NB03 RS37 1.117e+06 
0 PC03 NA03 RS38 1.117e+06 
0 PD02 NB02 RS39 1.117e+06 
1 PD04 NB04 SA_FB00 ### 
1 PD05 NB05 SA_FB01 ### 
1 PD06 NB06 SA_FB02 ### 
1 PD07 NB07 SA_FB03 ### 
1 PD08 NB08 SA_FB04 ### 
1 PD09 NB09 SA_FB05 ### 
1 PD10 NB10 SA_FB06 ### 
1 PD11 NB11 SA_FB07 ### 
1 PD12 NB12 SA_FB08 ### 
1 PD13 NB13 SA_FB09 ### 
1 PD14 NB14 SA_FB10 ### 
1 PD15 NB15 SA_FB11 ### 
1 PD16 NB16 SA_FB12 ### 
1 PD17 NB17 SA_FB13 ### 
1 PD18 NB18 SA_FB14 ### 
1 PD19 NB19 SA_FB15 ### 
1 PC05 NA05 SA_FB16 ### 
1 PC06 NA06 SA_FB17 ### 
1 PC07 NA07 SA_FB18 ### 
1 PC08 NA08 SA_FB19 ### 
1 PC09 NA09 SA_FB20 ### 
1 PC10 NA10 SA_FB21 ### 
1 PC11 NA11 SA_FB22 ### 
1 PC12 NA12 SA_FB23 ### 
1 PC13 NA13 SA_FB24 ### 
1 PC14 NA14 SA_FB25 ### 
1 PC15 NA15 SA_FB26 ### 
1 PC16 NA16 SA_FB27 ### 
1 PC17 NA17 SA_FB28 ### 
1 PC18 NA18 SA_FB29 ### 
1 PC19 NA19 SA_FB30 ### 
1 PC20 NA20 SA_FB31 ### 
1 PC03 NC04 HEATER ### 
1 PD01 NB01 LN_BIAS0 ### 
1 PD21 NB21 LN_BIAS1 ### 
1 PD22 NB22 LN_BIAS2 ### 
1 PD23 NB23 LN_BIAS3 ### 
1 PD24 NB24 LN_BIAS4 ### 
1 PC01 NA01 LN_BIAS5 ### 
1 PC02 NA02 LN_BIAS6 ### 
1 PC21 NA21 LN_BIAS7 ### 
1 PC22 NA22 LN_BIAS8 ### 
1 PC23 NA23 LN_BIAS9 ### 
2 PD04 NB04 S2_FB00 ### 
2 PD05 NB05 S2_FB01 ### 
2 PD06 NB06 S2_FB02 ### 
2 PD07 NB07 S2_FB03 ### 
2 PD08 NB08 S2_FB04 ### 
2 PD09 NB09 S2_FB05 ### 
2 PD10 NB10 S2_FB06 ### 
2 PD11 NB11 S2_FB07 ### 
2 PD12 NB12 S2_FB08 ### 
2 PD13 NB13 S2_FB09 ### 
2 PD14 NB14 S2_FB10 ### 
2 PD15 NB15 S2_FB11 ### 
2 PD16 NB16 S2_FB12 ### 
2 PD17 NB17 S2_FB13 ### 
2 PD18 NB18 S2_FB14 ### 
2 PD19 NB19 S2_FB15 ### 
2 PC05 NA05 S2_FB16 ### 
2 PC06 NA06 S2_FB17 ### 
2 PC07 NA07 S2_FB18 ### 
2 PC08 NA08 S2_FB19 ### 
2 PC09 NA09 S2_FB20 ### 
2 PC10 NA10 S2_FB21 ### 
2 PC11 NA11 S2_FB22 ### 
2 PC12 NA12 S2_FB23 ### 
2 PC13 NA13 S2_FB24 ### 
2 PC14 NA14 S2_FB25 ### 
2 PC15 NA15 S2_FB26 ### 
2 PC16 NA16 S2_FB27 ### 
2 PC17 NA17 S2_FB28 ### 
2 PC18 NA18 S2_FB29 ### 
2 PC19 NA19 S2_FB30 ### 
2 PC20 NA20 S2_FB31 ### 
2 PD02 ND03 DET_BIAS ### 
2 PD01 NB01 LN_BIAS10 ### 
2 PD21 NB21 LN_BIAS11 ### 
2 PD22 NB22 LN_BIAS12 ### 
2 PD23 NB23 LN_BIAS13 ### 
2 PD24 NB24 LN_BIAS14 ### 
2 PC01 NA01 LN_BIAS15 ### 
2 PC02 NA02 LN_BIAS16 ### 
2 PC21 NA21 LN_BIAS17 ### 
2 PC22 NA22 LN_BIAS18 ### 
2 PC23 NA23 LN_BIAS19 ### 
3 PD04 NB04 SB_00 ### 
3 PD05 NB05 SB_01 ### 
3 PD06 NB06 SB_02 ### 
3 PD07 NB07 SB_03 ### 
3 PD08 NB08 SB_04 ### 
3 PD09 NB09 SB_05 ### 
3 PD10 NB10 SB_06 ### 
3 PD11 NB11 SB_07 ### 
3 PD12 NB12 SB_08 ### 
3 PD13 NB13 SB_09 ### 
3 PD14 NB14 SB_10 ### 
3 PD15 NB15 SB_11 ### 
3 PD16 NB16 SB_12 ### 
3 PD17 NB17 SB_13 ### 
3 PD18 NB18 SB_14 ### 
3 PD19 NB19 SB_15 ### 
3 PC05 NA05 SB_16 ### 
3 PC06 NA06 SB_17 ### 
3 PC07 NA07 SB_18 ### 
3 PC08 NA08 SB_19 ### 
3 PC09 NA09 SB_20 ### 
3 PC10 NA10 SB_21 ### 
3 PC11 NA11 SB_22 ### 
3 PC12 NA12 SB_23 ### 
3 PC13 NA13 SB_24 ### 
3 PC14 NA14 SB_25 ### 
3 PC15 NA15 SB_26 ### 
3 PC16 NA16 SB_27 ### 
3 PC17 NA17 SB_28 ### 
3 PC18 NA18 SB_29 ### 
3 PC19 NA19 SB_30 ### 
3 PC20 NA20 SB_31 ### 
3 PD01 NB01 LN_BIAS20 ### 
3 PD21 NB21 LN_BIAS21 ### 
3 PD22 NB22 LN_BIAS22 ### 
3 PD23 NB23 LN_BIAS23 ### 
3 PD24 NB24 LN_BIAS24 ### 
3 PC01 NA01 LN_BIAS25 ### 
3 PC02 NA02 LN_BIAS26 ### 
3 PC21 NA21 LN_BIAS27 ### 
3 PC22 NA22 LN_BIAS28 ### 
3 PC23 NA23 LN_BIAS29 ### 
4 PD10 NC10 DOUT0 ### 
4 PD09 NC09 DOUT1 ### 
4 PD08 NC08 DOUT2 ### 
4 PD07 NC07 DOUT3 ### 
4 PD06 NC06 DOUT4 ### 
4 PD05 NC05 DOUT5 ### 
4 PD04 NC04 DOUT6 ### 
4 PD03 NC03 DOUT7 ### 
4 PD21 NC21 S1_FB0 ### 
4 PD20 NC20 S1_FB1 ### 
4 PD19 NC19 S1_FB2 ### 
4 PD18 NC18 S1_FB3 ### 
4 PD17 NC17 S1_FB4 ### 
4 PD16 NC16 S1_FB5 ### 
4 PD15 NC15 S1_FB6 ### 
4 PD14 NC14 S1_FB7 ### 
5 PD10 NC10 DOUT8 ### 
5 PD09 NC09 DOUT9 ### 
5 PD08 NC08 DOUT10 ### 
5 PD07 NC07 DOUT11 ### 
5 PD06 NC06 DOUT12 ### 
5 PD05 NC05 DOUT13 ### 
5 PD04 NC04 DOUT14 ### 
5 PD03 NC03 DOUT15 ### 
5 PD21 NC21 S1_FB8 ### 
5 PD20 NC20 S1_FB9 ### 
5 PD19 NC19 S1_FB10 ### 
5 PD18 NC18 S1_FB11 ### 
5 PD17 NC17 S1_FB12 ### 
5 PD16 NC16 S1_FB13 ### 
5 PD15 NC15 S1_FB14 ### 
5 PD14 NC14 S1_FB15 ### 
6 PD10 NC10 DOUT16 ### 
6 PD09 NC09 DOUT17 ### 
6 PD08 NC08 DOUT18 ### 
6 PD07 NC07 DOUT19 ### 
6 PD06 NC06 DOUT20 ### 
6 PD05 NC05 DOUT21 ### 
6 PD04 NC04 DOUT22 ### 
6 PD03 NC03 DOUT23 ### 
6 PD21 NC21 S1_FB16 ### 
6 PD20 NC20 S1_FB17 ### 
6 PD19 NC19 S1_FB18 ### 
6 PD18 NC18 S1_FB19 ### 
6 PD17 NC17 S1_FB20 ### 
6 PD16 NC16 S1_FB21 ### 
6 PD15 NC15 S1_FB22 ### 
6 PD14 NC14 S1_FB23 ### 
7 PD10 NC10 DOUT24 ### 
7 PD09 NC09 DOUT25 ### 
7 PD08 NC08 DOUT26 ### 
7 PD07 NC07 DOUT27 ### 
7 PD06 NC06 DOUT28 ### 
7 PD05 NC05 DOUT29 ### 
7 PD04 NC04 DOUT30 ### 
7 PD03 NC03 DOUT31 ### 
7 PD21 NC21 S1_FB24 ### 
7 PD20 NC20 S1_FB25 ### 
7 PD19 NC19 S1_FB26 ### 
7 PD18 NC18 S1_FB27 ### 
7 PD17 NC17 S1_FB28 ### 
7 PD16 NC16 S1_FB29 ### 
7 PD15 NC15 S1_FB30 ### 
7 PD14 NC14 S1_FB31 ### 
0 PD22 NA24 RSD 1.074e+06 
0 PC22 NA24 RS0 1.074e+06 
0 PD21 NA24 RS1 1.074e+06 
0 PC21 NA24 RS2 1.074e+06 
0 PD20 NA24 RS3 1.074e+06 
0 PC20 NA24 RS4 4.055e+03 
0 PD19 NA24 RS5 3.998e+03 
0 PC19 NA24 RS6 1.074e+06 
0 PD18 NA24 RS7 1.074e+06 
0 PC18 NA24 RS8 1.074e+06 
0 PD17 NA24 RS9 1.074e+06 
0 PC17 NA24 RS10 1.074e+06 
0 PD16 NA24 RS11 1.074e+06 
0 PC16 NA24 RS12 1.074e+06 
0 PD15 NA24 RS13 1.074e+06 
0 PC15 NA24 RS14 1.074e+06 
0 PD14 NA24 RS15 1.074e+06 
0 PC14 NA24 RS16 1.074e+06 
0 PD13 NA24 RS17 1.074e+06 
0 PC13 NA24 RS18 1.074e+06 
0 PD12 NA24 RS19 1.074e+06 
0 PC12 NA24 RS20 1.074e+06 
0 PD11 NA24 RS21 1.074e+06 
0 PC11 NA24 RS22 1.074e+06 
0 PD10 NA24 RS23 1.074e+06 
0 PC10 NA24 RS24 1.074e+06 
0 PD09 NA24 RS25 1.074e+06 
0 PC09 NA24 RS26 1.074e+06 
0 PD08 NA24 RS27 1.074e+06 
0 PC08 NA24 RS28 1.074e+06 
0 PD07 NA24 RS29 1.074e+06 
0 PC07 NA24 RS30 1.074e+06 
0 PD06 NA24 RS31 1.074e+06 
0 PC06 NA24 RS32 1.074e+06 
0 PD05 NA24 RS33 1.074e+06 
0 PC05 NA24 RS34 1.074e+06 
0 PD04 NA24 RS35 1.074e+06 
0 PC04 NA24 RS36 1.074e+06 
0 PD03 NA24 RS37 1.074e+06 
0 PC03 NA24 RS38 1.074e+06 
0 PD02 NA24 RS39 1.074e+06 
1 PD04 NA24 SA_FB00 ### 
1 PD05 NA24 SA_FB01 ### 
1 PD06 NA24 SA_FB02 ### 
1 PD07 NA24 SA_FB03 ### 
1 PD08 NA24 SA_FB04 ### 
1 PD09 NA24 SA_FB05 ### 
1 PD10 NA24 SA_FB06 ### 
1 PD11 NA24 SA_FB07 ### 
1 PD12 NA24 SA_FB08 ### 
1 PD13 NA24 SA_FB09 ### 
1 PD14 NA24 SA_FB10 ### 
1 PD15 NA24 SA_FB11 ### 
1 PD16 NA24 SA_FB12 ### 
1 PD17 NA24 SA_FB13 ### 
1 PD18 NA24 SA_FB14 ### 
1 PD19 NA24 SA_FB15 ### 
1 PC05 NA24 SA_FB16 ### 
1 PC06 NA24 SA_FB17 ### 
1 PC07 NA24 SA_FB18 ### 
1 PC08 NA24 SA_FB19 ### 
1 PC09 NA24 SA_FB20 ### 
1 PC10 NA24 SA_FB21 ### 
1 PC11 NA24 SA_FB22 ### 
1 PC12 NA24 SA_FB23 ### 
1 PC13 NA24 SA_FB24 ### 
1 PC14 NA24 SA_FB25 ### 
1 PC15 NA24 SA_FB26 ### 
1 PC16 NA24 SA_FB27 ### 
1 PC17 NA24 SA_FB28 ### 
1 PC18 NA24 SA_FB29 ### 
1 PC19 NA24 SA_FB30 ### 
1 PC20 NA24 SA_FB31 ### 
1 PC03 NA24 HEATER ### 
1 PD01 NA24 LN_BIAS0 ### 
1 PD21 NA24 LN_BIAS1 ### 
1 PD22 NA24 LN_BIAS2 ### 
1 PD23 NA24 LN_BIAS3 ### 
1 PD24 NA24 LN_BIAS4 ### 
1 PC01 NA24 LN_BIAS5 ### 
1 PC02 NA24 LN_BIAS6 ### 
1 PC21 NA24 LN_BIAS7 ### 
2 PD04 NA24 S2_FB00 ### 
2 PD05 NA24 S2_FB01 ### 
2 PD06 NA24 S2_FB02 ### 
2 PD07 NA24 S2_FB03 ### 
2 PD08 NA24 S2_FB04 ### 
2 PD09 NA24 S2_FB05 ### 
2 PD10 NA24 S2_FB06 ### 
2 PD11 NA24 S2_FB07 ### 
2 PD12 NA24 S2_FB08 ### 
2 PD13 NA24 S2_FB09 ### 
2 PD14 NA24 S2_FB10 ### 
2 PD15 NA24 S2_FB11 ### 
2 PD16 NA24 S2_FB12 ### 
2 PD17 NA24 S2_FB13 ### 
2 PD18 NA24 S2_FB14 ### 
2 PD19 NA24 S2_FB15 ### 
2 PC05 NA24 S2_FB16 ### 
2 PC06 NA24 S2_FB17 ### 
2 PC07 NA24 S2_FB18 ### 
2 PC08 NA24 S2_FB19 ### 
2 PC09 NA24 S2_FB20 ### 
2 PC10 NA24 S2_FB21 ### 
2 PC11 NA24 S2_FB22 ### 
2 PC12 NA24 S2_FB23 ### 
2 PC13 NA24 S2_FB24 ### 
2 PC14 NA24 S2_FB25 ### 
2 PC15 NA24 S2_FB26 ### 
2 PC16 NA24 S2_FB27 ### 
2 PC17 NA24 S2_FB28 ### 
2 PC18 NA24 S2_FB29 ### 
2 PC19 NA24 S2_FB30 ### 
2 PC20 NA24 S2_FB31 ### 
2 PD02 NA24 DET_BIAS ### 
3 PD04 NA24 SB_00 ### 
3 PD05 NA24 SB_01 ### 
3 PD06 NA24 SB_02 ### 
3 PD07 NA24 SB_03 ### 
3 PD08 NA24 SB_04 ### 
3 PD09 NA24 SB_05 ### 
3 PD10 NA24 SB_06 ### 
3 PD11 NA24 SB_07 ### 
3 PD12 NA24 SB_08 ### 
3 PD13 NA24 SB_09 ### 
3 PD14 NA24 SB_10 ### 
3 PD15 NA24 SB_11 ### 
3 PD16 NA24 SB_12 ### 
3 PD17 NA24 SB_13 ### 
3 PD18 NA24 SB_14 ### 
3 PD19 NA24 SB_15 ### 
3 PC05 NA24 SB_16 ### 
3 PC06 NA24 SB_17 ### 
3 PC07 NA24 SB_18 ### 
3 PC08 NA24 SB_19 ### 
3 PC09 NA24 SB_20 ### 
3 PC10 NA24 SB_21 ### 
3 PC11 NA24 SB_22 ### 
3 PC12 NA24 SB_23 ### 
3 PC13 NA24 SB_24 ### 
3 PC14 NA24 SB_25 ### 
3 PC15 NA24 SB_26 ### 
3 PC16 NA24 SB_27 ### 
3 PC17 NA24 SB_28 ### 
3 PC18 NA24 SB_29 ### 
3 PC19 NA24 SB_30 ### 
3 PC20 NA24 SB_31 ### 
4 PD10 NA24 DOUT0 ### 
4 PD09 NA24 DOUT1 ### 
4 PD08 NA24 DOUT2 ### 
4 PD07 NA24 DOUT3 ### 
4 PD06 NA24 DOUT4 ### 
4 PD05 NA24 DOUT5 ### 
4 PD04 NA24 DOUT6 ### 
4 PD03 NA24 DOUT7 ### 
4 PD21 NA24 S1_FB0 ### 
4 PD20 NA24 S1_FB1 ### 
4 PD19 NA24 S1_FB2 ### 
4 PD18 NA24 S1_FB3 ### 
4 PD17 NA24 S1_FB4 ### 
4 PD16 NA24 S1_FB5 ### 
4 PD15 NA24 S1_FB6 ### 
4 PD14 NA24 S1_FB7 ### 
5 PD10 NA24 DOUT8 ### 
5 PD09 NA24 DOUT9 ### 
5 PD08 NA24 DOUT10 ### 
5 PD07 NA24 DOUT11 ### 
5 PD06 NA24 DOUT12 ### 
5 PD05 NA24 DOUT13 ### 
5 PD04 NA24 DOUT14 ### 
5 PD03 NA24 DOUT15 ### 
5 PD21 NA24 S1_FB8 ### 
5 PD20 NA24 S1_FB9 ### 
5 PD19 NA24 S1_FB10 ### 
5 PD18 NA24 S1_FB11 ### 
5 PD17 NA24 S1_FB12 ### 
5 PD16 NA24 S1_FB13 ### 
5 PD15 NA24 S1_FB14 ### 
5 PD14 NA24 S1_FB15 ### 
6 PD10 NA24 DOUT16 ### 
6 PD09 NA24 DOUT17 ### 
6 PD08 NA24 DOUT18 ### 
6 PD07 NA24 DOUT19 ### 
6 PD06 NA24 DOUT20 ### 
6 PD05 NA24 DOUT21 ### 
6 PD04 NA24 DOUT22 ### 
6 PD03 NA24 DOUT23 ### 
6 PD21 NA24 S1_FB16 ### 
6 PD20 NA24 S1_FB17 ### 
6 PD19 NA24 S1_FB18 ### 
6 PD18 NA24 S1_FB19 ### 
6 PD17 NA24 S1_FB20 ### 
6 PD16 NA24 S1_FB21 ### 
6 PD15 NA24 S1_FB22 ### 
6 PD14 NA24 S1_FB23 ### 
7 PD10 NA24 DOUT24 ### 
7 PD09 NA24 DOUT25 ### 
7 PD08 NA24 DOUT26 ### 
7 PD07 NA24 DOUT27 ### 
7 PD06 NA24 DOUT28 ### 
7 PD05 NA24 DOUT29 ### 
7 PD04 NA24 DOUT30 ### 
7 PD03 NA24 DOUT31 ### 
7 PD21 NA24 S1_FB24 ### 
7 PD20 NA24 S1_FB25 ### 
7 PD19 NA24 S1_FB26 ### 
7 PD18 NA24 S1_FB27 ### 
7 PD17 NA24 S1_FB28 ### 
7 PD16 NA24 S1_FB29 ### 
7 PD15 NA24 S1_FB30 ### 
7 PD14 NA24 S1_FB31 ### 
0 NA24 PB22 RSD 1.074e+06 
0 NA24 PA22 RS0 1.074e+06 
0 NA24 PB21 RS1 1.074e+06 
0 NA24 PA21 RS2 1.074e+06 
0 NA24 PB20 RS3 1.074e+06 
0 NA24 PA20 RS4 2.063e+03 
0 NA24 PB19 RS5 2.006e+03 
0 NA24 PA19 RS6 1.074e+06 
0 NA24 PB18 RS7 1.074e+06 
0 NA24 PA18 RS8 1.074e+06 
0 NA24 PB17 RS9 1.074e+06 
0 NA24 PA17 RS10 1.074e+06 
0 NA24 PB16 RS11 1.074e+06 
0 NA24 PA16 RS12 1.074e+06 
0 NA24 PB15 RS13 1.074e+06 
0 NA24 PA15 RS14 1.074e+06 
0 NA24 PB14 RS15 1.074e+06 
0 NA24 PA14 RS16 1.074e+06 
0 NA24 PB13 RS17 1.074e+06 
0 NA24 PA13 RS18 1.074e+06 
0 NA24 PB12 RS19 1.074e+06 
0 NA24 PA12 RS20 1.074e+06 
0 NA24 PB11 RS21 1.074e+06 
0 NA24 PA11 RS22 1.074e+06 
0 NA24 PB10 RS23 1.074e+06 
0 NA24 PA10 RS24 1.074e+06 
0 NA24 PB09 RS25 1.074e+06 
0 NA24 PA09 RS26 1.074e+06 
0 NA24 PB08 RS27 1.074e+06 
0 NA24 PA08 RS28 1.074e+06 
0 NA24 PB07 RS29 1.074e+06 
0 NA24 PA07 RS30 1.074e+06 
0 NA24 PB06 RS31 1.074e+06 
0 NA24 PA06 RS32 1.074e+06 
0 NA24 PB05 RS33 1.074e+06 
0 NA24 PA05 RS34 1.074e+06 
0 NA24 PB04 RS35 1.074e+06 
0 NA24 PA04 RS36 1.074e+06 
0 NA24 PB03 RS37 1.074e+06 
0 NA24 PA03 RS38 1.074e+06 
0 NA24 PB02 RS39 1.074e+06 
1 NA24 PB04 SA_FB00 ### 
1 NA24 PB05 SA_FB01 ### 
1 NA24 PB06 SA_FB02 ### 
1 NA24 PB07 SA_FB03 ### 
1 NA24 PB08 SA_FB04 ### 
1 NA24 PB09 SA_FB05 ### 
1 NA24 PB10 SA_FB06 ### 
1 NA24 PB11 SA_FB07 ### 
1 NA24 PB12 SA_FB08 ### 
1 NA24 PB13 SA_FB09 ### 
1 NA24 PB14 SA_FB10 ### 
1 NA24 PB15 SA_FB11 ### 
1 NA24 PB16 SA_FB12 ### 
1 NA24 PB17 SA_FB13 ### 
1 NA24 PB18 SA_FB14 ### 
1 NA24 PB19 SA_FB15 ### 
1 NA24 PA05 SA_FB16 ### 
1 NA24 PA06 SA_FB17 ### 
1 NA24 PA07 SA_FB18 ### 
1 NA24 PA08 SA_FB19 ### 
1 NA24 PA09 SA_FB20 ### 
1 NA24 PA10 SA_FB21 ### 
1 NA24 PA11 SA_FB22 ### 
1 NA24 PA12 SA_FB23 ### 
1 NA24 PA13 SA_FB24 ### 
1 NA24 PA14 SA_FB25 ### 
1 NA24 PA15 SA_FB26 ### 
1 NA24 PA16 SA_FB27 ### 
1 NA24 PA17 SA_FB28 ### 
1 NA24 PA18 SA_FB29 ### 
1 NA24 PA19 SA_FB30 ### 
1 NA24 PA20 SA_FB31 ### 
1 NA24 PC04 HEATER ### 
1 NA24 NB01 LN_BIAS0 ### 
1 NA24 NB02 LN_BIAS1 ### 
1 NA24 NB22 LN_BIAS2 ### 
1 NA24 NB23 LN_BIAS3 ### 
1 NA24 NB24 LN_BIAS4 ### 
1 NA24 NA01 LN_BIAS5 ### 
1 NA24 NA02 LN_BIAS6 ### 
1 NA24 NA21 LN_BIAS7 ### 
2 NA24 PB04 S2_FB00 ### 
2 NA24 PB05 S2_FB01 ### 
2 NA24 PB06 S2_FB02 ### 
2 NA24 PB07 S2_FB03 ### 
2 NA24 PB08 S2_FB04 ### 
2 NA24 PB09 S2_FB05 ### 
2 NA24 PB10 S2_FB06 ### 
2 NA24 PB11 S2_FB07 ### 
2 NA24 PB12 S2_FB08 ### 
2 NA24 PB13 S2_FB09 ### 
2 NA24 PB14 S2_FB10 ### 
2 NA24 PB15 S2_FB11 ### 
2 NA24 PB16 S2_FB12 ### 
2 NA24 PB17 S2_FB13 ### 
2 NA24 PB18 S2_FB14 ### 
2 NA24 PB19 S2_FB15 ### 
2 NA24 PA05 S2_FB16 ### 
2 NA24 PA06 S2_FB17 ### 
2 NA24 PA07 S2_FB18 ### 
2 NA24 PA08 S2_FB19 ### 
2 NA24 PA09 S2_FB20 ### 
2 NA24 PA10 S2_FB21 ### 
2 NA24 PA11 S2_FB22 ### 
2 NA24 PA12 S2_FB23 ### 
2 NA24 PA13 S2_FB24 ### 
2 NA24 PA14 S2_FB25 ### 
2 NA24 PA15 S2_FB26 ### 
2 NA24 PA16 S2_FB27 ### 
2 NA24 PA17 S2_FB28 ### 
2 NA24 PA18 S2_FB29 ### 
2 NA24 PA19 S2_FB30 ### 
2 NA24 PA20 S2_FB31 ### 
2 NA24 ND03 DET_BIAS ### 
3 NA24 PB04 SB_00 ### 
3 NA24 PB05 SB_01 ### 
3 NA24 PB06 SB_02 ### 
3 NA24 PB07 SB_03 ### 
3 NA24 PB08 SB_04 ### 
3 NA24 PB09 SB_05 ### 
3 NA24 PB10 SB_06 ### 
3 NA24 PB11 SB_07 ### 
3 NA24 PB12 SB_08 ### 
3 NA24 PB13 SB_09 ### 
3 NA24 PB14 SB_10 ### 
3 NA24 PB15 SB_11 ### 
3 NA24 PB16 SB_12 ### 
3 NA24 PB17 SB_13 ### 
3 NA24 PB18 SB_14 ### 
3 NA24 PB19 SB_15 ### 
3 NA24 PA05 SB_16 ### 
3 NA24 PA06 SB_17 ### 
3 NA24 PA07 SB_18 ### 
3 NA24 PA08 SB_19 ### 
3 NA24 PA09 SB_20 ### 
3 NA24 PA10 SB_21 ### 
3 NA24 PA11 SB_22 ### 
3 NA24 PA12 SB_23 ### 
3 NA24 PA13 SB_24 ### 
3 NA24 PA14 SB_25 ### 
3 NA24 PA15 SB_26 ### 
3 NA24 PA16 SB_27 ### 
3 NA24 PA17 SB_28 ### 
3 NA24 PA18 SB_29 ### 
3 NA24 PA19 SB_30 ### 
3 NA24 PA20 SB_31 ### 
4 NA24 PC10 DOUT0 ### 
4 NA24 PC09 DOUT1 ### 
4 NA24 PC08 DOUT2 ### 
4 NA24 PC07 DOUT3 ### 
4 NA24 PC06 DOUT4 ### 
4 NA24 PC05 DOUT5 ### 
4 NA24 PC04 DOUT6 ### 
4 NA24 PC03 DOUT7 ### 
4 NA24 PC21 S1_FB0 ### 
4 NA24 PC20 S1_FB1 ### 
4 NA24 PC19 S1_FB2 ### 
4 NA24 PC18 S1_FB3 ### 
4 NA24 PC17 S1_FB4 ### 
4 NA24 PC16 S1_FB5 ### 
4 NA24 PC15 S1_FB6 ### 
4 NA24 PC14 S1_FB7 ### 
5 NA24 PC10 DOUT8 ### 
5 NA24 PC09 DOUT9 ### 
5 NA24 PC08 DOUT10 ### 
5 NA24 PC07 DOUT11 ### 
5 NA24 PC06 DOUT12 ### 
5 NA24 PC05 DOUT13 ### 
5 NA24 PC04 DOUT14 ### 
5 NA24 PC03 DOUT15 ### 
5 NA24 PC21 S1_FB8 ### 
5 NA24 PC20 S1_FB9 ### 
5 NA24 PC19 S1_FB10 ### 
5 NA24 PC18 S1_FB11 ### 
5 NA24 PC17 S1_FB12 ### 
5 NA24 PC16 S1_FB13 ### 
5 NA24 PC15 S1_FB14 ### 
5 NA24 PC14 S1_FB15 ### 
6 NA24 PC10 DOUT16 ### 
6 NA24 PC09 DOUT17 ### 
6 NA24 PC08 DOUT18 ### 
6 NA24 PC07 DOUT19 ### 
6 NA24 PC06 DOUT20 ### 
6 NA24 PC05 DOUT21 ### 
6 NA24 PC04 DOUT22 ### 
6 NA24 PC03 DOUT23 ### 
6 NA24 PC21 S1_FB16 ### 
6 NA24 PC20 S1_FB17 ### 
6 NA24 PC19 S1_FB18 ### 
6 NA24 PC18 S1_FB19 ### 
6 NA24 PC17 S1_FB20 ### 
6 NA24 PC16 S1_FB21 ### 
6 NA24 PC15 S1_FB22 ### 
6 NA24 PC14 S1_FB23 ### 
7 NA24 PC10 DOUT24 ### 
7 NA24 PC09 DOUT25 ### 
7 NA24 PC08 DOUT26 ### 
7 NA24 PC07 DOUT27 ### 
7 NA24 PC06 DOUT28 ### 
7 NA24 PC05 DOUT29 ### 
7 NA24 PC04 DOUT30 ### 
7 NA24 PC03 DOUT31 ### 
7 NA24 PC21 S1_FB24 ### 
7 NA24 PC20 S1_FB25 ### 
7 NA24 PC19 S1_FB26 ### 
7 NA24 PC18 S1_FB27 ### 
7 NA24 PC17 S1_FB28 ### 
7 NA24 PC16 S1_FB29 ### 
7 NA24 PC15 S1_FB30 ### 
7 NA24 PC14 S1_FB31 ### 
1 PD04 PC04 SA_FB00 ### 
1 PD05 PC04 SA_FB01 ### 
1 PD06 PC04 SA_FB02 ### 
1 PD07 PC04 SA_FB03 ### 
1 PD08 PC04 SA_FB04 ### 
1 PD09 PC04 SA_FB05 ### 
1 PD10 PC04 SA_FB06 ### 
1 PD11 PC04 SA_FB07 ### 
1 PD12 PC04 SA_FB08 ### 
1 PD13 PC04 SA_FB09 ### 
1 PD14 PC04 SA_FB10 ### 
1 PD15 PC04 SA_FB11 ### 
1 PD16 PC04 SA_FB12 ### 
1 PD17 PC04 SA_FB13 ### 
1 PD18 PC04 SA_FB14 ### 
1 PD19 PC04 SA_FB15 ### 
1 PC05 PC04 SA_FB16 ### 
1 PC06 PC04 SA_FB17 ### 
1 PC07 PC04 SA_FB18 ### 
1 PC08 PC04 SA_FB19 ### 
1 PC09 PC04 SA_FB20 ### 
1 PC10 PC04 SA_FB21 ### 
1 PC11 PC04 SA_FB22 ### 
1 PC12 PC04 SA_FB23 ### 
1 PC13 PC04 SA_FB24 ### 
1 PC14 PC04 SA_FB25 ### 
1 PC15 PC04 SA_FB26 ### 
1 PC16 PC04 SA_FB27 ### 
1 PC17 PC04 SA_FB28 ### 
1 PC18 PC04 SA_FB29 ### 
1 PC19 PC04 SA_FB30 ### 
1 PC20 PC04 SA_FB31 ### 
1 NA24 PC04 HEATER ### 
2 PD04 ND03 S2_FB00 ### 
2 PD05 ND03 S2_FB01 ### 
2 PD06 ND03 S2_FB02 ### 
2 PD07 ND03 S2_FB03 ### 
2 PD08 ND03 S2_FB04 ### 
2 PD09 ND03 S2_FB05 ### 
2 PD10 ND03 S2_FB06 ### 
2 PD11 ND03 S2_FB07 ### 
2 PD12 ND03 S2_FB08 ### 
2 PD13 ND03 S2_FB09 ### 
2 PD14 ND03 S2_FB10 ### 
2 PD15 ND03 S2_FB11 ### 
2 PD16 ND03 S2_FB12 ### 
2 PD17 ND03 S2_FB13 ### 
2 PD18 ND03 S2_FB14 ### 
2 PD19 ND03 S2_FB15 ### 
2 PC05 ND03 S2_FB16 ### 
2 PC06 ND03 S2_FB17 ### 
2 PC07 ND03 S2_FB18 ### 
2 PC08 ND03 S2_FB19 ### 
2 PC09 ND03 S2_FB20 ### 
2 PC10 ND03 S2_FB21 ### 
2 PC11 ND03 S2_FB22 ### 
2 PC12 ND03 S2_FB23 ### 
2 PC13 ND03 S2_FB24 ### 
2 PC14 ND03 S2_FB25 ### 
2 PC15 ND03 S2_FB26 ### 
2 PC16 ND03 S2_FB27 ### 
2 PC17 ND03 S2_FB28 ### 
2 PC18 ND03 S2_FB29 ### 
2 PC19 ND03 S2_FB30 ### 
2 PC20 ND03 S2_FB31 ### 
2 NA24 ND03 DET_BIAS ### 
3 PD04 PB15 SB_00 ### 
3 PD05 PB15 SB_01 ### 
3 PD06 PB15 SB_02 ### 
3 PD07 PB15 SB_03 ### 
3 PD08 PB15 SB_04 ### 
3 PD09 PB15 SB_05 ### 
3 PD10 PB15 SB_06 ### 
3 PD11 PB15 SB_07 ### 
3 PD12 PB15 SB_08 ### 
3 PD13 PB15 SB_09 ### 
3 PD14 PB15 SB_10 ### 
3 NA24 PB15 SB_11 ### 
3 PD16 PB15 SB_12 ### 
3 PD17 PB15 SB_13 ### 
3 PD18 PB15 SB_14 ### 
3 PD19 PB15 SB_15 ### 
3 PC05 PB15 SB_16 ### 
3 PC06 PB15 SB_17 ### 
3 PC07 PB15 SB_18 ### 
3 PC08 PB15 SB_19 ### 
3 PC09 PB15 SB_20 ### 
3 PC10 PB15 SB_21 ### 
3 PC11 PB15 SB_22 ### 
3 PC12 PB15 SB_23 ### 
3 PC13 PB15 SB_24 ### 
3 PC14 PB15 SB_25 ### 
3 PC15 PB15 SB_26 ### 
3 PC16 PB15 SB_27 ### 
3 PC17 PB15 SB_28 ### 
3 PC18 PB15 SB_29 ### 
3 PC19 PB15 SB_30 ### 
3 PC20 PB15 SB_31 ### 
1 PC03 PB04 SA_FB00 ### 
1 PC03 PB05 SA_FB01 ### 
1 PC03 PB06 SA_FB02 ### 
1 PC03 PB07 SA_FB03 ### 
1 PC03 PB08 SA_FB04 ### 
1 PC03 PB09 SA_FB05 ### 
1 PC03 PB10 SA_FB06 ### 
1 PC03 PB11 SA_FB07 ### 
1 PC03 PB12 SA_FB08 ### 
1 PC03 PB13 SA_FB09 ### 
1 PC03 PB14 SA_FB10 ### 
1 PC03 PB15 SA_FB11 ### 
1 PC03 PB16 SA_FB12 ### 
1 PC03 PB17 SA_FB13 ### 
1 PC03 PB18 SA_FB14 ### 
1 PC03 PB19 SA_FB15 ### 
1 PC03 PA05 SA_FB16 ### 
1 PC03 PA06 SA_FB17 ### 
1 PC03 PA07 SA_FB18 ### 
1 PC03 PA08 SA_FB19 ### 
1 PC03 PA09 SA_FB20 ### 
1 PC03 PA10 SA_FB21 ### 
1 PC03 PA11 SA_FB22 ### 
1 PC03 PA12 SA_FB23 ### 
1 PC03 PA13 SA_FB24 ### 
1 PC03 PA14 SA_FB25 ### 
1 PC03 PA15 SA_FB26 ### 
1 PC03 PA16 SA_FB27 ### 
1 PC03 PA17 SA_FB28 ### 
1 PC03 PA18 SA_FB29 ### 
1 PC03 PA19 SA_FB30 ### 
1 PC03 PA20 SA_FB31 ### 
1 PC03 NA24 HEATER ### 
2 PD02 PB04 S2_FB00 ### 
2 PD02 PB05 S2_FB01 ### 
2 PD02 PB06 S2_FB02 ### 
2 PD02 PB07 S2_FB03 ### 
2 PD02 PB08 S2_FB04 ### 
2 PD02 PB09 S2_FB05 ### 
2 PD02 PB10 S2_FB06 ### 
2 PD02 PB11 S2_FB07 ### 
2 PD02 PB12 S2_FB08 ### 
2 PD02 PB13 S2_FB09 ### 
2 PD02 PB14 S2_FB10 ### 
2 PD02 PB15 S2_FB11 ### 
2 PD02 PB16 S2_FB12 ### 
2 PD02 PB17 S2_FB13 ### 
2 PD02 PB18 S2_FB14 ### 
2 PD02 PB19 S2_FB15 ### 
2 PD02 PA05 S2_FB16 ### 
2 PD02 PA06 S2_FB17 ### 
2 PD02 PA07 S2_FB18 ### 
2 PD02 PA08 S2_FB19 ### 
2 PD02 PA09 S2_FB20 ### 
2 PD02 PA10 S2_FB21 ### 
2 PD02 PA11 S2_FB22 ### 
2 PD02 PA12 S2_FB23 ### 
2 PD02 PA13 S2_FB24 ### 
2 PD02 PA14 S2_FB25 ### 
2 PD02 PA15 S2_FB26 ### 
2 PD02 PA16 S2_FB27 ### 
2 PD02 PA17 S2_FB28 ### 
2 PD02 PA18 S2_FB29 ### 
2 PD02 PA19 S2_FB30 ### 
2 PD02 PA20 S2_FB31 ### 
2 PD02 NA24 DET_BIAS ### 
3 PD15 PB04 SB_00 ### 
3 PD15 PB05 SB_01 ### 
3 PD15 PB06 SB_02 ### 
3 PD15 PB07 SB_03 ### 
3 PD15 PB08 SB_04 ### 
3 PD15 PB09 SB_05 ### 
3 PD15 PB10 SB_06 ### 
3 PD15 PB11 SB_07 ### 
3 PD15 PB12 SB_08 ### 
3 PD15 PB13 SB_09 ### 
3 PD15 PB14 SB_10 ### 
3 PD15 NA24 SB_11 ### 
3 PD15 PB16 SB_12 ### 
3 PD15 PB17 SB_13 ### 
3 PD15 PB18 SB_14 ### 
3 PD15 PB19 SB_15 ### 
3 PD15 PA05 SB_16 ### 
3 PD15 PA06 SB_17 ### 
3 PD15 PA07 SB_18 ### 
3 PD15 PA08 SB_19 ### 
3 PD15 PA09 SB_20 ### 
3 PD15 PA10 SB_21 ### 
3 PD15 PA11 SB_22 ### 
3 PD15 PA12 SB_23 ### 
3 PD15 PA13 SB_24 ### 
3 PD15 PA14 SB_25 ### 
3 PD15 PA15 SB_26 ### 
3 PD15 PA16 SB_27 ### 
3 PD15 PA17 SB_28 ### 
3 PD15 PA18 SB_29 ### 
3 PD15 PA19 SB_30 ### 
3 PD15 PA20 SB_31 ### 
